{
    "userId": "2DX2YG1R5ZD7TBUJG1UH211XL7nz6fhSLrxQb06RI1MOWUTLQ",
    "password": "AQ7K8Jx411lEF",
    "cert": "/myProject_keyAndCertBundle.p12",
    "key": "/key_5ed2a896-0658-4083-8dce-43284015a8ba.pem"
}